Clean, Parse, Harmonize, and Hash Messy Real-World Addresses • addr
…
The above process is conducted, with default matching arguments, in the function addr_match_geocode, which requires a vector of reference s2 cell locations: As of now, this process only works with the cagis_s2 available as below and for matching within Hamilton County, OH (36061) using 2022 TIGER street range files

# select one s2 cell at random from addresses with more than one parcel identifier and coordinates
cagis_s2 <-
   cagis_addr()$cagis_addr_data |>
   purrr::modify_if(\(.) length(.) > 0 && nrow(.) > 1, dplyr::slice_sample, n = 1) |>
   purrr::map_vec(purrr::pluck, "cagis_s2", .default = NA, .ptype = s2::s2_cell())
   
addr_match_geocode(x = sample(voter_addresses(), 100), 
                   ref_addr = cagis_addr()$cagis_addr,
                   ref_s2 = cagis_s2,
                   county = "39061",
                   year = "2022")
#> # A tibble: 100 × 3
#>                                           addr s2               match_method
#>                                         <addr> <s2cell>         <fct>       
#>  1     411 Pedretti Avenue Cincinnati OH 45238 8841b6192539a2e5 ref_addr    
#>  2    7432 Bayswater Drive Cincinnati OH 45255 8841af3264f87405 tiger_range 
#>  3      5366 Dickens Drive Cincinnati OH 45241 884051140ea170a7 ref_addr    
#>  4        245 Mcguire Lane Cincinnati OH 45215 88405286586bc095 ref_addr    
#>  5     3909 Dickson Avenue Cincinnati OH 45229 8841b30e55fab54d ref_addr    
#>  6      4025 Egbert Avenue Cincinnati OH 45220 8841b37c962f5a3b ref_addr    
#>  7   11451 Folkstone Drive Cincinnati OH 45240 88404ebd7161497d ref_addr    
#>  8  1860 Queen City Avenue Cincinnati OH 45214 8841b43472fe3997 ref_addr    
#>  9 9797 Cooper Woods Court Cincinnati OH 45241 88405251fbc59f91 ref_addr    
#> 10       3815 Lincoln Road Cincinnati OH 45247 88403554febe6d93 ref_addr    
#> # ℹ 90 more rows
…
