…
``` r

# select one s2 cell at random from addresses with more than one parcel identifier and coordinates
cagis_s2 <-
   cagis_addr()$cagis_addr_data |>
   purrr::modify_if(\(.) length(.) > 0 && nrow(.) > 1, dplyr::slice_sample, n = 1) |>
   purrr::map_vec(purrr::pluck, "cagis_s2", .default = NA, .ptype = s2::s2_cell())
   
addr_match_geocode(x = sample(voter_addresses(), 100), 
                   ref_addr = cagis_addr()$cagis_addr,
                   ref_s2 = cagis_s2,
                   county = "39061",
                   year = "2022")
#> # A tibble: 100 × 3
#>                                           addr s2               match_method
#>                                         <addr> <s2cell>         <fct>       
#>  1       6971 Warder Drive Cincinnati OH 45224 88404ca4593038b7 ref_addr    
#>  2     894 Woodshire Drive Cincinnati OH 45233 8841c97f9ee596d3 ref_addr    
#>  3        269 Fleming Road Cincinnati OH 45215 88404c542fe43b4f ref_addr    
#>  4     846 Oakfield Avenue Cincinnati OH 45224 88404ca8c2b81cc1 ref_addr    
#>  5     6248 Elkwater Court Cincinnati OH 45248 8841cbb1da9b3963 ref_addr    
#>  6       7740 Bowen Avenue Cincinnati OH 45255 8841a939f7c04e25 tiger_range 
#>  7        6622 Abell Court Cincinnati OH 45247 884034efad1f9595 ref_addr    
#>  8      3185 Jackfrost Way Cincinnati OH 45251 88404a3fb4362e93 ref_addr    
#>  9 2577 Williamsburg Drive Cincinnati OH 45225 8841b4fe6c8193cd ref_addr    
#> 10             NA NA W Mill St Cleves OH 45002 NA               none        
#> # ℹ 90 more rows
```
