geocode addr vectors — addr_match_geocode • addr
…
    Examples

cagis_s2 <-
  cagis_addr()$cagis_addr_data |>
  purrr::modify_if(\(.) length(.) > 0 && nrow(.) > 1, dplyr::slice_sample, n = 1) |>
  purrr::map_vec(purrr::pluck, "cagis_s2", .default = NA, .ptype = s2::s2_cell())
addr_match_geocode(x = sample(voter_addresses(), 100), ref_s2 = cagis_s2)
#> matching addresses in 22/38 ZIP codes [3.6s elapsed] 
#> matching addresses in 35/38 ZIP codes [6.6s elapsed] 
#> matching addresses in 38/38 ZIP codes [7s elapsed] 
#> 
#> # A tibble: 100 × 3
#>                                          addr s2               match_method
#>                                        <addr> <s2cell>         <fct>       
#>  1       9756 Ross Avenue Cincinnati OH 45242 88405386f89c2569 ref_addr    
#>  2        1621 1st Avenue Cincinnati OH 45205 8841b5dbee7c2bbf ref_addr    
#>  3      9854 Arvin Avenue Cincinnati OH 45231 88404bbd8470be7d ref_addr    
#>  4   7324 Hillside Avenue Cincinnati OH 45233 8841cc0783e2b755 ref_addr    
#>  5   10885 Carolitrace Road Harrison OH 45030 NA               none        
#>  6       2944 Hull Avenue Cincinnati OH 45211 8841b5783ed3f5e9 ref_addr    
#>  7 5310 Timberchase Court Cincinnati OH 45247 8841cab7436adf0d ref_addr    
#>  8 5236 Valley Ridge Road Cincinnati OH 45247 8841cada7af313b9 ref_addr    
#>  9        10650 Marvin Road Harrison OH 45030 88402dc45e31f31f ref_addr    
#> 10   3700 Grovedale Place Cincinnati OH 45208 8841b2632a33ccc1 ref_addr    
#> # ℹ 90 more rows
…
